2000 2500 2.0 2.5 0.6294 0.0083
2500 3000 2.0 2.5 0.6415 0.0083
3000 3500 2.0 2.5 0.6528 0.0089
3500 4000. 2.0 2.5 0.6889 0.0093
4000. 5000. 2.0 2.5 0.7220 0.0073
5000. 7000 2.0 2.5 0.7779 0.0066
7000 10000. 2.0 2.5 0.8446 0.0080
10000. 15000 2.0 2.5 0.9107 0.0101
2000 2500 2.5 3. 0.8443 0.0068
2500 3000 2.5 3. 0.8714 0.0063
3000 3500 2.5 3. 0.8851 0.0063
3500 4000. 2.5 3. 0.8911 0.0069
4000. 5000. 2.5 3. 0.9050 0.0051
5000. 7000 2.5 3. 0.9315 0.0044
7000 10000. 2.5 3. 0.9557 0.0050
10000. 15000 2.5 3. 0.9772 0.0063
2000 2500 3. 3.5 0.9173 0.0055
2500 3000 3. 3.5 0.9343 0.0051
3000 3500 3. 3.5 0.9384 0.0054
3500 4000. 3. 3.5 0.9528 0.0051
4000. 5000. 3. 3.5 0.9520 0.0042
5000. 7000 3. 3.5 0.9689 0.0034
7000 10000. 3. 3.5 0.9834 0.0037
10000. 15000 3. 3.5 0.9800 0.0070
2000 2500 3.5 4. 0.9192 0.0063
2500 3000 3.5 4. 0.9276 0.0060
3000 3500 3.5 4. 0.9299 0.0065
3500 4000. 3.5 4. 0.9420 0.0064
4000. 5000. 3.5 4. 0.9509 0.0049
5000. 7000 3.5 4. 0.9703 0.0040
7000 10000. 3.5 4. 0.9903 0.0034
10000. 15000 3.5 4. 0.9883 0.0067
2000 2500 4. 4.5 0.8313 0.0100
2500 3000 4. 4.5 0.8395 0.0103
3000 3500 4. 4.5 0.8783 0.0100
3500 4000. 4. 4.5 0.8876 0.0103
4000. 5000. 4. 4.5 0.8724 0.0093
5000. 7000 4. 4.5 0.9196 0.0080
7000 10000. 4. 4.5 0.9511 0.0100
10000. 15000 4. 4.5 0.9694 0.0174
