psi_ENDVERTEX_X,0.6232825951788142
psi_ENDVERTEX_Y,0.09831607915198887
psi_ENDVERTEX_Z,26.92532829971452
psi_ENDVERTEX_CHI2,2.0256637758627547
psi_OWNPV_CHI2,27.406680489463152
psi_OWNPV_X,0.623978807857207
psi_OWNPV_Y,0.09786264249989245
psi_OWNPV_Z,23.17327002164407
psi_IP_OWNPV,0.23755461114293525
psi_FD_OWNPV,6.236745239613589
psi_ETA,3.772314714968901
mup_OWNPV_CHI2,28.0757101501961
mum_OWNPV_CHI2,28.068602275264574
mup_ORIVX_CHI2,2.0256637758627547
mum_ORIVX_CHI2,2.0256637758627547
mum_TRACK_PCHI2,0.4011626554548296
mum_TRACK_GhostProb,0.04547889269166114
mup_TRACK_PCHI2,0.4024285519229469
mup_TRACK_GhostProb,0.04769067570443894
mup_TRACK_Likelihood,-7.681650889420071
mup_TRACK_MatchCHI2,7.198302950048643
mum_TRACK_Likelihood,-7.539992350848108
mum_TRACK_MatchCHI2,7.147386704852607
psi_PX,-10.764305678005883
psi_PY,-3.097647495298593
psi_PE,72228.93801631681
psi_PZ,71953.18303263931
mum_PX,146.9949842141181
mum_PY,-4.507435295847316
mum_PZ,36020.69749027604
mum_PE,36158.165341457236
mup_PX,-157.75825286855175
mup_PY,1.0413552294415915
mup_PZ,35949.88495605433
mup_PE,36087.30911455226
mum_PT,2359.065683465101
mup_PT,2360.0888745870575
mum_TRACK_CHI2NDOF,1.1506457523336688
mup_TRACK_CHI2NDOF,1.150982895257174
mum_P,36157.795155126085
mup_P,36086.93935172843
psi_P,72085.69040539976
mum_OWNPV_X,0.6239443090895755
mum_OWNPV_Y,0.09787412695759345
mum_OWNPV_Z,24.05295191188049
mum_IP_OWNPV,0.2672093018398997
mup_OWNPV_X,0.6239304872140632
mup_OWNPV_Y,0.09787858109173862
mup_OWNPV_Z,24.062882685671944
mup_IP_OWNPV,0.2678155657450935
mup_CosTheta,-0.0001818840985094044
mum_CosTheta,0.0001773285893059822
mup_ORIVX_X,0.6232825951788142
mup_ORIVX_Y,0.09831607915198887
mup_ORIVX_Z,26.92532829971452
mum_ORIVX_X,0.6232825951788142
mum_ORIVX_Y,0.09831607915198887
mum_ORIVX_Z,26.92532829971452
