FB =  0.090069 +/- 0.0017718 L(0 - 1) 
frac_tail =  0.0047193 +/- 0.0012019 L(0 - 0.1) 
fromb_tau =  1.5726 +/- 0.039545 L(0.5 - 10) 
sig_par_beta =  0.90221 +/- 0.036927 L(0 - 1) 
tmp_zero =  0.0000 C L(-INF - +INF) 
tz_bias_sig =  0.020267 +/- 0.0062276 L(-5 - 5) 
tz_sigma1_sig =  1.0415 +/- 0.023119 L(0 - 10) 
tz_sigma2_sig =  2.2243 +/- 0.31389 L(0 - 10) 
