FB =  0.062326 +/- 0.0012842 L(0 - 1) 
frac_tail =  0.022222 +/- 0.0016197 L(0 - 0.1) 
fromb_tau =  1.3261 +/- 0.048290 L(0.5 - 10) 
sig_par_beta =  0.90964 +/- 0.022067 L(0 - 1) 
tmp_zero =  0.0000 C L(-INF - +INF) 
tz_bias_sig =  0.043474 +/- 0.0044509 L(-5 - 5) 
tz_sigma1_sig =  1.0524 +/- 0.016540 L(0 - 10) 
tz_sigma2_sig =  2.5181 +/- 0.29428 L(0 - 10) 
