FB =  0.17057 +/- 0.0028266 L(0 - 1) 
frac_tail =  0.0035947 +/- 0.00098053 L(0 - 0.1) 
fromb_tau =  1.5343 +/- 0.031333 L(0.5 - 10) 
sig_par_beta =  0.55448 +/- 0.045956 L(0 - 1) 
tmp_zero =  0.0000 C L(-INF - +INF) 
tz_bias_sig = -0.0269089 +/- 0.0083557 L(-5 - 5) 
tz_sigma1_sig =  0.78461 +/- 0.029572 L(0 - 10) 
tz_sigma2_sig =  1.5297 +/- 0.047308 L(0 - 10) 
