FB =  0.42957 +/- 0.0026993 L(0 - 1) 
frac_tail =  0.0000000010497 +/- 0.063967 L(0 - 0.1) 
fromb_tau =  1.3578 +/- 0.00029139 L(0.5 - 10) 
sig_par_beta =  0.37959 +/- 0.0024016 L(0 - 1) 
tmp_zero =  0.0000 C L(-INF - +INF) 
tz_bias_sig = -0.0481462 +/- 0.83279 L(-5 - 5) 
tz_sigma1_sig =  0.91489 +/- 0.00021161 L(0 - 10) 
tz_sigma2_sig =  1.6592 +/- 3.8235 L(0 - 10) 
