FB =  0.12066 +/- 0.0014626 L(0 - 1) 
frac_tail =  0.0049480 +/- 0.00085774 L(0 - 0.1) 
fromb_tau =  1.5502 +/- 0.024264 L(0.5 - 10) 
sig_par_beta =  0.80933 +/- 0.076866 L(0 - 1) 
tmp_zero =  0.0000 C L(-INF - +INF) 
tz_bias_sig = -0.0154081 +/- 0.0048472 L(-5 - 5) 
tz_sigma1_sig =  1.0061 +/- 0.036409 L(0 - 10) 
tz_sigma2_sig =  1.7954 +/- 0.19075 L(0 - 10) 
