FB =  0.80724 +/- 0.0020929 L(0 - 1) 
frac_tail =  0.021007 +/- 0.00088714 L(0 - 0.1) 
fromb_tau =  1.4953 +/- 0.0080240 L(0.5 - 10) 
sig_par_beta =  0.055531 +/- 0.016869 L(0 - 1) 
tmp_zero =  0.0000 C L(-INF - +INF) 
tz_bias_sig = -0.0245224 +/- 0.014919 L(-5 - 5) 
tz_sigma1_sig =  2.9287 +/- 0.40305 L(0 - 10) 
tz_sigma2_sig =  1.1274 +/- 0.017858 L(0 - 10) 
