FB =  0.92929 +/- 0.0067966 L(0 - 1) 
frac_tail =  0.0061424 +/- 0.0018162 L(0 - 0.1) 
fromb_tau =  1.3766 +/- 0.019508 L(0.5 - 10) 
sig_par_beta =  0.00049800 +/- 0.0052290 L(0 - 1) 
tmp_zero =  0.0000 C L(-INF - +INF) 
tz_bias_sig = -0.124065 +/- 0.10769 L(-5 - 5) 
tz_sigma1_sig =  9.8906 +/- 1.0442 L(0 - 10) 
tz_sigma2_sig =  1.1219 +/- 0.064050 L(0 - 10) 
