FB =  0.61995 +/- 0.0026162 L(0 - 1) 
frac_tail =  0.0070630 +/- 0.00060286 L(0 - 0.1) 
fromb_tau =  1.4929 +/- 0.0095167 L(0.5 - 10) 
sig_par_beta =  0.95937 +/- 0.011837 L(0 - 1) 
tmp_zero =  0.0000 C L(-INF - +INF) 
tz_bias_sig = -0.0244050 +/- 0.010324 L(-5 - 5) 
tz_sigma1_sig =  1.1197 +/- 0.012968 L(0 - 10) 
tz_sigma2_sig =  2.9711 +/- 0.40077 L(0 - 10) 
