FB =  0.72383 +/- 0.0039147 L(0 - 1) 
frac_tail =  0.0076145 +/- 0.00096514 L(0 - 0.1) 
fromb_tau =  1.4484 +/- 0.013243 L(0.5 - 10) 
sig_par_beta =  0.97986 +/- 0.0084043 L(0 - 1) 
tmp_zero =  0.0000 C L(-INF - +INF) 
tz_bias_sig = -0.0491994 +/- 0.019628 L(-5 - 5) 
tz_sigma1_sig =  1.1191 +/- 0.016992 L(0 - 10) 
tz_sigma2_sig =  3.7591 +/- 0.85655 L(0 - 10) 
