FB =  0.58507 +/- 0.0020090 L(0 - 1) 
frac_tail =  0.0083480 +/- 0.00051888 L(0 - 0.1) 
fromb_tau =  1.5024 +/- 0.0074030 L(0.5 - 10) 
sig_par_beta =  0.96203 +/- 0.0025449 L(0 - 1) 
tmp_zero =  0.0000 C L(-INF - +INF) 
tz_bias_sig =  0.0046693 +/- 0.0075329 L(-5 - 5) 
tz_sigma1_sig =  1.1576 +/- 0.0066304 L(0 - 10) 
tz_sigma2_sig =  6.1672 +/- 0.36355 L(0 - 10) 
