FB =  1.00000 +/- 0.000012609 L(0 - 1) 
frac_tail =  0.015011 +/- 0.0030328 L(0 - 0.1) 
fromb_tau =  1.4227 +/- 0.024667 L(0.5 - 10) 
sig_par_beta =  0.00000068290 +/- 0.00018248 L(0 - 1) 
tmp_zero =  0.0000 C L(-INF - +INF) 
tz_bias_sig = -0.951004 +/- 0.12962 L(-5 - 5) 
tz_sigma1_sig =  9.9875 +/- 0.35292 L(0 - 10) 
tz_sigma2_sig =  0.70141 +/- 0.12704 L(0 - 10) 
