NbkgA =  4.9282 +/- 3.8198 L(0 - 42) 
NsigA =  17.065 +/- 5.1382 L(0 - 42) 
aA = -0.00858685 +/- 0.011541 L(-0.01 - 0.01) 
meanA =  3687.9 +/- 2.3654 L(3666.1 - 3706.1) 
sigmaA1 =  42.818 +/- 10.540 L(5 - 50) 
aB =  0.0022089 +/- 0.0017195 L(-0.01 - 0.01) 
fbkg =  30.382 +/- 23.912 L(3 - 200) 
fsig =  14.842 +/- 4.7777 L(3 - 200) 
sigmaB1 =  24.686 +/- 2.5130 L(5 - 50) 
