NbkgA =  18789 +/- 148.90 L(0 - 47053.2) 
NsigA =  669.79 +/- 63.647 L(0 - 47053.2) 
aA = -0.00105179 +/- 0.000063512 L(-0.01 - 0.01) 
meanA =  3689.3 +/- 0.058285 L(3666.1 - 3706.1) 
sigmaA1 =  13.986 +/- 0.054778 L(1 - 50) 
NbkgB =  64349 +/- 340.07 L(0 - 209038) 
NsigB =  104752 +/- 395.03 L(0 - 209038) 
aB = -0.000704976 +/- 0.000072077 L(-0.01 - 0.01) 
sigmaR =  1.1800 C L(0.3 - 2) 
