NbkgA =  228.53 +/- 17.082 L(0 - 672) 
NsigA =  134.44 +/- 14.077 L(0 - 672) 
aA = -0.00161304 +/- 0.00058435 L(-0.01 - 0.01) 
meanA =  3690.0 +/- 0.40609 L(3666.1 - 3706.1) 
sigmaA1 =  11.442 +/- 1.1749 L(5 - 50) 
aB = -0.000692296 +/- 0.00042179 L(-0.01 - 0.01) 
fbkg =  8.3889 +/- 0.68399 L(3 - 200) 
fsig =  18.465 +/- 1.9968 L(3 - 200) 
sigmaB1 =  15.027 +/- 0.40573 L(5 - 50) 
