FB =  0.27277 +/- 0.013111 L(0 - 1) 
frac_tail =  0.0000010000 C L(0 - 0.1) 
fromb_tau =  1.4615 +/- 0.073844 L(0.5 - 10) 
sig_par_beta =  0.58831 +/- 0.11234 L(0 - 1) 
tmp_zero =  0.0000 C L(-INF - +INF) 
tz_bias_sig =  0.061892 +/- 0.040047 L(-5 - 5) 
tz_sigma1_sig =  0.84976 +/- 0.066326 L(0 - 10) 
tz_sigma2_sig =  1.6672 +/- 0.13085 L(0 - 10) 
