NbkgA =  2351.0 +/- 54.456 L(0 - 6766.8) 
NsigA =  298.07 +/- 30.214 L(0 - 6766.8) 
aA = -0.00159181 +/- 0.00018103 L(-0.01 - 0.01) 
meanA =  3687.3 +/- 0.095200 L(3666.1 - 3706.1) 
sigmaA1 =  19.152 +/- 0.088571 L(1 - 50) 
NbkgB =  11087 +/- 178.21 L(0 - 89787.6) 
NsigB =  62968 +/- 289.20 L(0 - 89787.6) 
aB = -0.00132883 +/- 0.00019440 L(-0.01 - 0.01) 
sigmaR =  1.1800 C L(0.3 - 2) 
