NbkgA =  3591.7 +/- 68.019 L(0 - 9706.8) 
NsigA =  620.22 +/- 40.690 L(0 - 9706.8) 
aA = -0.00115757 +/- 0.00014592 L(-0.01 - 0.01) 
meanA =  3687.4 +/- 0.079491 L(3666.1 - 3706.1) 
sigmaA1 =  19.672 +/- 0.072999 L(1 - 50) 
NbkgB =  10830 +/- 190.44 L(0 - 123534) 
NsigB =  91166 +/- 341.47 L(0 - 123534) 
aB = -0.000242767 +/- 0.00021030 L(-0.01 - 0.01) 
sigmaR =  1.1800 C L(0.3 - 2) 
