NbkgA =  90.633 +/- 12.206 L(0 - 361.2) 
NsigA =  110.24 +/- 13.003 L(0 - 361.2) 
aA = -0.00336224 +/- 0.00097720 L(-0.01 - 0.01) 
meanA =  3688.8 +/- 0.51719 L(3666.1 - 3706.1) 
sigmaA1 =  16.812 +/- 2.5168 L(5 - 50) 
aB = -0.0000470196 +/- 0.00067398 L(-0.01 - 0.01) 
fbkg =  9.3331 +/- 1.3673 L(3 - 200) 
fsig =  19.495 +/- 2.3674 L(3 - 200) 
sigmaB1 =  18.425 +/- 0.50867 L(5 - 50) 
