NbkgA =  234.51 +/- 17.419 L(0 - 652.8) 
NsigA =  112.52 +/- 13.502 L(0 - 652.8) 
aA = -0.000106027 +/- 0.00057222 L(-0.01 - 0.01) 
meanA =  3690.3 +/- 0.44507 L(3666.1 - 3706.1) 
sigmaA1 =  13.588 +/- 1.6045 L(5 - 50) 
aB =  0.000098519 +/- 0.00040420 L(-0.01 - 0.01) 
fbkg =  8.6536 +/- 0.69766 L(3 - 200) 
fsig =  17.831 +/- 2.2131 L(3 - 200) 
sigmaB1 =  13.894 +/- 0.48607 L(5 - 50) 
