FB =  0.25485 +/- 0.0087758 L(0 - 1) 
frac_tail =  0.0000010000 C L(0 - 0.1) 
fromb_tau =  1.4700 +/- 0.054040 L(0.5 - 10) 
sig_par_beta =  0.36075 +/- 0.14598 L(0 - 1) 
tmp_zero =  0.0000 C L(-INF - +INF) 
tz_bias_sig = -0.0303399 +/- 0.027531 L(-5 - 5) 
tz_sigma1_sig =  0.82909 +/- 0.076600 L(0 - 10) 
tz_sigma2_sig =  1.3903 +/- 0.072798 L(0 - 10) 
