NbkgA =  127.12 +/- 14.080 L(0 - 493.2) 
NsigA =  123.89 +/- 13.978 L(0 - 493.2) 
aA = -0.00119401 +/- 0.00078826 L(-0.01 - 0.01) 
meanA =  3688.2 +/- 0.53861 L(3666.1 - 3706.1) 
sigmaA1 =  20.398 +/- 2.3289 L(5 - 50) 
aB = -0.000757877 +/- 0.00056378 L(-0.01 - 0.01) 
fbkg =  9.8578 +/- 1.1930 L(3 - 200) 
fsig =  21.946 +/- 2.5448 L(3 - 200) 
sigmaB1 =  20.749 +/- 0.52558 L(5 - 50) 
