FB =  0.13806 +/- 0.0087266 L(0 - 1) 
frac_tail =  0.0000010000 C L(0 - 0.1) 
fromb_tau =  1.4929 +/- 0.0095167 C L(0.5 - 10) 
sig_par_beta =  1.00000 C L(0 - 1) 
tmp_zero =  0.0000 C L(-INF - +INF) 
tz_bias_sig =  0.028194 +/- 0.025788 L(-5 - 5) 
tz_sigma1_sig =  1.0637 +/- 0.017192 L(0 - 10) 
tz_sigma2_sig =  1.0000 C L(0 - 10) 
